<svg xmlns="http://www.w3.org/2000/svg" viewBox="0 0 250 250">
	<path d="M168.3,169.1H81.8c-5,0-9-4-9-9V99.2c0-5,4-9,9-9h9.1l4.4-8.3c0.3-0.7,1-1.1,1.8-1.1h21.8c0.7,0,1.4,0.4,1.8,1.1l4.4,8.3h43.4c5,0,9,4,9,9v60.9C177.3,165.1,173.2,169.1,168.3,169.1z M173.3,99.2c0-2.8-2.2-5-5-5h-44.6c-0.7,0-1.4-0.4-1.8-1.1l-4.4-8.3H98.2l-4.4,8.3c-0.3,0.7-1,1.1-1.8,1.1H81.8c-2.8,0-5,2.2-5,5v60.9c0,2.8,2.2,5,5,5h86.5c2.8,0,5-2.2,5-5L173.3,99.2L173.3,99.2z M144.7,133.8h-16.5v16.5c0,1.1-0.9,2-2,2s-2-0.9-2-2v-16.5h-16.5c-1.1,0-2-0.9-2-2s0.9-2,2-2h16.5v-16.5c0-1.1,0.9-2,2-2s2,0.9,2,2v16.5h16.5c1.1,0,2,0.9,2,2S145.8,133.8,144.7,133.8z"/>
</svg>
