<svg xmlns="http://www.w3.org/2000/svg" width="24" height="24.08" viewBox="0 0 20.961 21.031">
  <path d="M727.3,657.717c-1.88,1.88-5.25,5.144-6.617,6.511a3.209,3.209,0,1,1-4.511-4.511l5.689-5.69,1,1-5.688,5.689a1.813,1.813,0,1,0,2.518,2.519c0.816-.817,5.3-5.125,6.653-6.475a3.457,3.457,0,0,0-4.888-4.889c-1.35,1.35-6.2,6.385-8.22,8.409a5.181,5.181,0,0,0,7.326,7.328l7.439-7.44,0.978,0.978-7.439,7.44a6.564,6.564,0,1,1-9.282-9.284c2.563-2.564,6.359-6.511,8.239-8.391A4.814,4.814,0,0,1,727.3,657.717Z" transform="translate(-709.176 -649.5)"/>
</svg>
