<svg xmlns="http://www.w3.org/2000/svg" width="24" height="24" viewBox="0 0 24 24">
  <path d="M6.467,15.99a0.987,0.987,0,0,1-.219-0.025,7.987,7.987,0,0,1-3.208-1.546A1.016,1.016,0,0,1,2.876,13a0.993,0.993,0,0,1,1.4-.166A6,6,0,0,0,6.684,14,1.01,1.01,0,0,1,6.467,15.99Zm3.108-.008a1.011,1.011,0,0,1-.224-1.993,6,6,0,0,0,2.4-1.173,0.993,0.993,0,0,1,1.4.157A1.015,1.015,0,0,1,13,14.391a8.008,8.008,0,0,1-3.2,1.566A0.986,0.986,0,0,1,9.575,15.982ZM1.71,12.193a1,1,0,0,1-.9-0.566A8.055,8.055,0,0,1,0,8.131,1,1,0,0,1,1,7.116H1a1,1,0,0,1,1,1,6.035,6.035,0,0,0,.6,2.619,1.014,1.014,0,0,1-.459,1.351A0.984,0.984,0,0,1,1.71,12.193Zm12.6-.038a0.984,0.984,0,0,1-.433-0.1,1.014,1.014,0,0,1-.468-1.348A6.042,6.042,0,0,0,14,8.085a1.041,1.041,0,0,1,1-1.051A0.97,0.97,0,0,1,16,8V8.085a8.062,8.062,0,0,1-.787,3.5A1,1,0,0,1,14.311,12.155ZM1.673,6.07a0.99,0.99,0,0,1-.428-0.1A1.014,1.014,0,0,1,.77,4.628a8.138,8.138,0,0,1,2.2-2.82,0.994,0.994,0,0,1,1.407.148,1.017,1.017,0,0,1-.147,1.42A6.1,6.1,0,0,0,2.578,5.493,1,1,0,0,1,1.673,6.07Zm12.6-.111a1,1,0,0,1-.9-0.561,6.113,6.113,0,0,0-1.685-2.086,1.016,1.016,0,0,1-.171-1.417,0.993,0.993,0,0,1,1.4-.173A8.113,8.113,0,0,1,15.17,4.5a1.013,1.013,0,0,1-.451,1.353A0.989,0.989,0,0,1,14.276,5.959ZM6.386,2.216A1.01,1.01,0,0,1,6.157.225,10.4,10.4,0,0,1,8,.009,7.979,7.979,0,0,1,9.708.193a1.009,1.009,0,0,1-.424,1.973A6.076,6.076,0,0,0,8,2.028a5.933,5.933,0,0,0-1.379.162A1.007,1.007,0,0,1,6.386,2.216Z" transform="translate(4 4)"/>
</svg>
