<svg class="lds-message" width="100%" height="100%" xmlns="http://www.w3.org/2000/svg" viewBox="0 0 100 40" preserveAspectRatio="xMidYMid">
	<g transform="translate(20 20)">
	<circle cx="0" cy="0" r="6" fill="#c1c1c1" transform="scale(0.957607 0.957607)">
		<animateTransform attributeName="transform" type="scale" begin="-0.375s" calcMode="spline" keySplines="0.3 0 0.7 1;0.3 0 0.7 1" values="0;1;0" keyTimes="0;0.5;1" dur="1s" repeatCount="indefinite"></animateTransform>
	</circle>
</g><g transform="translate(40 20)">
	<circle cx="0" cy="0" r="6" fill="#c1c1c1" transform="scale(0.944626 0.944626)">
		<animateTransform attributeName="transform" type="scale" begin="-0.25s" calcMode="spline" keySplines="0.3 0 0.7 1;0.3 0 0.7 1" values="0;1;0" keyTimes="0;0.5;1" dur="1s" repeatCount="indefinite"></animateTransform>
	</circle>
</g><g transform="translate(60 20)">
	<circle cx="0" cy="0" r="6" fill="#c1c1c1" transform="scale(0.663291 0.663291)">
		<animateTransform attributeName="transform" type="scale" begin="-0.125s" calcMode="spline" keySplines="0.3 0 0.7 1;0.3 0 0.7 1" values="0;1;0" keyTimes="0;0.5;1" dur="1s" repeatCount="indefinite"></animateTransform>
	</circle>
</g><g transform="translate(80 20)">
	<circle cx="0" cy="0" r="6" fill="#c1c1c1" transform="scale(0.31208 0.31208)">
		<animateTransform attributeName="transform" type="scale" begin="0s" calcMode="spline" keySplines="0.3 0 0.7 1;0.3 0 0.7 1" values="0;1;0" keyTimes="0;0.5;1" dur="1s" repeatCount="indefinite"></animateTransform>
	</circle>
</g>
</svg>