<svg xmlns="http://www.w3.org/2000/svg" viewBox="0 0 218 24">
  <path d="M12.3,23.6L0.6,12L12.2,0.4L17.9,6L12,12l6,6L12.3,23.6z M35,6.2h-8.3v12.3h3v-10H35V6.2z M38.1,6.2l-0.2,5.7c-0.1,1.5-0.3,2.6-0.5,3.2c-0.3,0.6-0.7,1-1.3,1.1l-0.4,0v2.3h0.8c1,0,1.8-0.2,2.3-0.6c0.6-0.4,1-1,1.3-1.9c0.3-0.9,0.5-2,0.6-3.4l0.2-4.1h2.8v10h3V6.2H38.1z M57.2,18.5h3.2L55.8,6.2H53l-4.5,12.3h3.2l0.7-2.3h4.1L57.2,18.5z M54.4,9.6l1.3,4.3h-2.6L54.4,9.6zM67.3,18.5c1.5,0,2.6-0.3,3.4-0.9c0.8-0.6,1.1-1.5,1.1-2.7c0-0.7-0.2-1.2-0.5-1.7c-0.3-0.5-0.8-0.8-1.5-0.9c0.6-0.2,1-0.5,1.3-1c0.3-0.5,0.4-1,0.4-1.6c0-1.1-0.4-1.9-1.2-2.5s-2-0.9-3.6-0.9h-4.4v12.3H67.3z M65.2,8.5h1.5c0.7,0,1.1,0.1,1.4,0.3s0.4,0.6,0.4,1.1c0,0.5-0.1,0.8-0.4,1c-0.3,0.2-0.7,0.4-1.4,0.4h-1.5V8.5z M67.3,13.3c1,0,1.5,0.5,1.5,1.5c0,0.4-0.1,0.8-0.4,1c-0.3,0.2-0.7,0.4-1.2,0.4h-1.9v-3H67.3z M84.5,6.2h-3v4.9h-4.4V6.2h-3v12.3h3v-5.1h4.4v5.1h3V6.2z M95.1,18.5h3.2L93.7,6.2h-2.8l-4.5,12.3h3.2l0.7-2.3h4.1L95.1,18.5z M92.3,9.6l1.3,4.3H91L92.3,9.6z M109.3,18.5V6.2h-4.4c-1.5,0-2.7,0.3-3.5,1c-0.8,0.7-1.2,1.6-1.2,2.8c0,1.4,0.5,2.4,1.6,3.2l-2.5,5.3h3.2l2.1-4.3h1.7v4.3H109.3z M103.5,8.9c0.3-0.3,0.7-0.5,1.3-0.5h1.5v3.6h-1.5c-0.6,0-1-0.1-1.3-0.4c-0.3-0.3-0.4-0.7-0.4-1.4C103.1,9.7,103.2,9.2,103.5,8.9z M123.9,14.3c0,0.7-0.2,1.2-0.6,1.5s-0.9,0.5-1.6,0.5c-0.8,0-1.4-0.3-1.7-0.8c-0.3-0.6-0.5-1.5-0.5-2.8v-0.9c0-1.2,0.2-2.1,0.5-2.6c0.3-0.6,0.9-0.8,1.6-0.8c0.7,0,1.3,0.2,1.6,0.5c0.4,0.3,0.5,0.9,0.6,1.6h3c-0.1-1.4-0.6-2.5-1.5-3.3S123.3,6,121.8,6c-1,0-2,0.2-2.7,0.7c-0.8,0.5-1.4,1.2-1.8,2.1s-0.6,2-0.6,3.2v0.6c0,1.9,0.5,3.4,1.4,4.5c0.9,1.1,2.2,1.6,3.8,1.6c1,0,1.9-0.2,2.6-0.5c0.8-0.4,1.4-0.9,1.8-1.5c0.4-0.7,0.7-1.4,0.7-2.3H123.9z M138.8,6.2h-10.3v2.3h3.6v10h3v-10h3.7V6.2z M145.7,14.3c1.5,0,2.7-0.4,3.5-1.1s1.3-1.7,1.3-2.9c0-0.8-0.2-1.5-0.6-2.2c-0.4-0.6-1-1.1-1.7-1.5s-1.6-0.5-2.5-0.5h-4.9v12.3h3v-4.2H145.7zM143.9,8.5h2c0.5,0,1,0.2,1.3,0.5c0.3,0.3,0.5,0.8,0.5,1.4c0,0.5-0.2,0.9-0.5,1.2c-0.3,0.3-0.7,0.4-1.3,0.4h-1.9V8.5z M159.7,18.5h3.2l-4.5-12.3h-2.8L151,18.5h3.2l0.7-2.3h4.1L159.7,18.5z M156.9,9.6l1.3,4.3h-2.6L156.9,9.6z M175,6.2h-3v4.9h-4.4V6.2h-3v12.3h3v-5.1h4.4v5.1h3V6.2z M180.7,13.9V6.2h-3v12.3h3l4.4-7.8v7.8h3V6.2h-3L180.7,13.9z M190.8,18.5h9.3v3h2.8l0.2-5.2h-1.9V6.2h-3v10h-4.4v-10h-3V18.5z M213.3,18.5h3.2l-4.5-12.3h-2.8l-4.5,12.3h3.2l0.7-2.3h4.1L213.3,18.5z M210.5,9.6l1.3,4.3h-2.6L210.5,9.6z"/>
</svg>
